-- Merging decision tree log ---
manifest
ADDED from /Users/ducthanhnguyen/demo-onboard/toro-exoplayer/src/main/AndroidManifest.xml:17:1-44
INJECTED from /Users/ducthanhnguyen/demo-onboard/toro-exoplayer/src/main/AndroidManifest.xml:17:1-44
INJECTED from /Users/ducthanhnguyen/demo-onboard/toro-exoplayer/src/main/AndroidManifest.xml:17:1-44
INJECTED from /Users/ducthanhnguyen/demo-onboard/toro-exoplayer/src/main/AndroidManifest.xml:17:1-44
INJECTED from /Users/ducthanhnguyen/demo-onboard/toro-exoplayer/src/main/AndroidManifest.xml:17:1-44
INJECTED from /Users/ducthanhnguyen/demo-onboard/toro-exoplayer/src/main/AndroidManifest.xml:17:1-44
INJECTED from /Users/ducthanhnguyen/demo-onboard/toro-exoplayer/src/main/AndroidManifest.xml:17:1-44
	package
		ADDED from /Users/ducthanhnguyen/demo-onboard/toro-exoplayer/src/main/AndroidManifest.xml:17:11-42
		INJECTED from /Users/ducthanhnguyen/demo-onboard/toro-exoplayer/src/main/AndroidManifest.xml
		INJECTED from /Users/ducthanhnguyen/demo-onboard/toro-exoplayer/src/main/AndroidManifest.xml
	android:versionName
		INJECTED from /Users/ducthanhnguyen/demo-onboard/toro-exoplayer/src/main/AndroidManifest.xml
		ADDED from /Users/ducthanhnguyen/demo-onboard/toro-exoplayer/src/main/AndroidManifest.xml:17:1-44
		INJECTED from /Users/ducthanhnguyen/demo-onboard/toro-exoplayer/src/main/AndroidManifest.xml
	xmlns:android
		ADDED from /Users/ducthanhnguyen/demo-onboard/toro-exoplayer/src/main/AndroidManifest.xml:17:1-44
	android:versionCode
		INJECTED from /Users/ducthanhnguyen/demo-onboard/toro-exoplayer/src/main/AndroidManifest.xml
		ADDED from /Users/ducthanhnguyen/demo-onboard/toro-exoplayer/src/main/AndroidManifest.xml:17:1-44
		INJECTED from /Users/ducthanhnguyen/demo-onboard/toro-exoplayer/src/main/AndroidManifest.xml
uses-sdk
INJECTED from /Users/ducthanhnguyen/demo-onboard/toro-exoplayer/src/main/AndroidManifest.xml reason: use-sdk injection requested
INJECTED from /Users/ducthanhnguyen/demo-onboard/toro-exoplayer/src/main/AndroidManifest.xml
INJECTED from /Users/ducthanhnguyen/demo-onboard/toro-exoplayer/src/main/AndroidManifest.xml
INJECTED from /Users/ducthanhnguyen/demo-onboard/toro-exoplayer/src/main/AndroidManifest.xml
INJECTED from /Users/ducthanhnguyen/demo-onboard/toro-exoplayer/src/main/AndroidManifest.xml
	android:targetSdkVersion
		INJECTED from /Users/ducthanhnguyen/demo-onboard/toro-exoplayer/src/main/AndroidManifest.xml
		ADDED from /Users/ducthanhnguyen/demo-onboard/toro-exoplayer/src/main/AndroidManifest.xml
		INJECTED from /Users/ducthanhnguyen/demo-onboard/toro-exoplayer/src/main/AndroidManifest.xml
	android:minSdkVersion
		INJECTED from /Users/ducthanhnguyen/demo-onboard/toro-exoplayer/src/main/AndroidManifest.xml
		ADDED from /Users/ducthanhnguyen/demo-onboard/toro-exoplayer/src/main/AndroidManifest.xml
		INJECTED from /Users/ducthanhnguyen/demo-onboard/toro-exoplayer/src/main/AndroidManifest.xml
